(kicad_pcb (version 20211014) (generator pcbnew)

  (general
    (thickness 1.6)
  )

  (paper "A4")
  (layers
    (0 "F.Cu" signal)
    (31 "B.Cu" signal)
    (32 "B.Adhes" user "B.Adhesive")
    (33 "F.Adhes" user "F.Adhesive")
    (34 "B.Paste" user)
    (35 "F.Paste" user)
    (36 "B.SilkS" user "B.Silkscreen")
    (37 "F.SilkS" user "F.Silkscreen")
    (38 "B.Mask" user)
    (39 "F.Mask" user)
    (40 "Dwgs.User" user "User.Drawings")
    (41 "Cmts.User" user "User.Comments")
    (42 "Eco1.User" user "User.Eco1")
    (43 "Eco2.User" user "User.Eco2")
    (44 "Edge.Cuts" user)
    (45 "Margin" user)
    (46 "B.CrtYd" user "B.Courtyard")
    (47 "F.CrtYd" user "F.Courtyard")
    (48 "B.Fab" user)
    (49 "F.Fab" user)
    (50 "User.1" user)
    (51 "User.2" user)
    (52 "User.3" user)
    (53 "User.4" user)
    (54 "User.5" user)
    (55 "User.6" user)
    (56 "User.7" user)
    (57 "User.8" user)
    (58 "User.9" user)
  )

  (setup
    (stackup
      (layer "F.SilkS" (type "Top Silk Screen") (color "White"))
      (layer "F.Paste" (type "Top Solder Paste"))
      (layer "F.Mask" (type "Top Solder Mask") (color "Black") (thickness 0.01))
      (layer "F.Cu" (type "copper") (thickness 0.035))
      (layer "dielectric 1" (type "core") (thickness 1.51) (material "FR4") (epsilon_r 4.5) (loss_tangent 0.02))
      (layer "B.Cu" (type "copper") (thickness 0.035))
      (layer "B.Mask" (type "Bottom Solder Mask") (color "Black") (thickness 0.01))
      (layer "B.Paste" (type "Bottom Solder Paste"))
      (layer "B.SilkS" (type "Bottom Silk Screen") (color "White"))
      (copper_finish "None")
      (dielectric_constraints no)
    )
    (pad_to_mask_clearance 0)
    (aux_axis_origin 151.5 97)
    (grid_origin 151.5 97)
    (pcbplotparams
      (layerselection 0x00010fc_ffffffff)
      (disableapertmacros false)
      (usegerberextensions false)
      (usegerberattributes true)
      (usegerberadvancedattributes true)
      (creategerberjobfile true)
      (svguseinch false)
      (svgprecision 6)
      (excludeedgelayer true)
      (plotframeref false)
      (viasonmask false)
      (mode 1)
      (useauxorigin false)
      (hpglpennumber 1)
      (hpglpenspeed 20)
      (hpglpendiameter 15.000000)
      (dxfpolygonmode true)
      (dxfimperialunits true)
      (dxfusepcbnewfont true)
      (psnegative false)
      (psa4output false)
      (plotreference true)
      (plotvalue true)
      (plotinvisibletext false)
      (sketchpadsonfab false)
      (subtractmaskfromsilk false)
      (outputformat 1)
      (mirror false)
      (drillshape 0)
      (scaleselection 1)
      (outputdirectory "_output")
    )
  )

  (net 0 "")
  (net 1 "GND")

  (footprint "MountingHole:MountingHole_3.5mm_Pad_TopBottom" (layer "F.Cu")
    (tedit 56D1B4CB) (tstamp 12b3a3fe-d8e6-4fc2-bd0f-d481c7797fb8)
    (at 180 104.25 180)
    (descr "Mounting Hole 3.5mm")
    (tags "mounting hole 3.5mm")
    (property "Sheetfile" "Victors-PSU-Front.kicad_sch")
    (property "Sheetname" "")
    (path "/f4a0cd61-3a59-41ac-9afd-1901fe00f47b")
    (attr exclude_from_pos_files)
    (fp_text reference "H6" (at 0 -4.5) (layer "F.SilkS") hide
      (effects (font (size 1 1) (thickness 0.15)))
      (tstamp bb79edcf-4fd3-4bb7-ac92-f29a35f03871)
    )
    (fp_text value "Out2" (at 0 4.5) (layer "F.Fab")
      (effects (font (size 1 1) (thickness 0.15)))
      (tstamp 602fa7b2-6d45-49d7-a62c-5eab0dee93a6)
    )
    (fp_text user "${REFERENCE}" (at 0 0) (layer "F.Fab")
      (effects (font (size 1 1) (thickness 0.15)))
      (tstamp 1b120853-8b8d-4862-8577-23dae6e56ed5)
    )
    (fp_circle (center 0 0) (end 3.5 0) (layer "Cmts.User") (width 0.15) (fill none) (tstamp cafb4bf3-6481-419e-b107-a60e56e1656b))
    (fp_circle (center 0 0) (end 3.75 0) (layer "F.CrtYd") (width 0.05) (fill none) (tstamp 8861807e-e9e1-496b-93b4-887e22921e2c))
    (pad "1" connect circle (at 0 0 180) (size 7 7) (layers "F.Cu" "F.Mask")
      (net 1 "GND") (pinfunction "1") (pintype "input") (tstamp b4fe1936-c6c4-4f7e-8e88-2ce36d163abd))
    (pad "1" thru_hole circle (at 0 0 180) (size 11 11) (drill 8.5) (layers *.Cu *.Mask)
      (net 1 "GND") (pinfunction "1") (pintype "input") (tstamp c626d85b-2407-4fbe-b81c-11287ba3db4e))
    (pad "1" thru_hole circle (at 0 0 180) (size 11 11) (drill 8.5) (layers *.Cu *.Mask)
      (net 1 "GND") (pinfunction "1") (pintype "input") (tstamp f7a9922c-6977-4ae5-b192-43c3522b61b9))
  )

  (footprint "MountingHole:MountingHole_3.5mm_Pad_TopBottom" (layer "F.Cu")
    (tedit 56D1B4CB) (tstamp 269b2799-9ea0-4d40-8d2d-62d3fd314837)
    (at 200 116.45 180)
    (descr "Mounting Hole 3.5mm")
    (tags "mounting hole 3.5mm")
    (property "Sheetfile" "Victors-PSU-Front.kicad_sch")
    (property "Sheetname" "")
    (path "/62795eb8-14e2-4698-a6c4-2e7f7f4e5b9a")
    (attr exclude_from_pos_files)
    (fp_text reference "H1" (at 0 -4.5) (layer "F.SilkS") hide
      (effects (font (size 1 1) (thickness 0.15)))
      (tstamp fe6e4670-4f6c-47fd-9cbb-103b8cc63f55)
    )
    (fp_text value "MH" (at 0 4.5) (layer "F.Fab")
      (effects (font (size 1 1) (thickness 0.15)))
      (tstamp faef6921-1800-4a27-ac72-d58ba16231df)
    )
    (fp_text user "${REFERENCE}" (at 0 0) (layer "F.Fab")
      (effects (font (size 1 1) (thickness 0.15)))
      (tstamp 74f1e11a-7db9-46cd-b39e-767bcf5934fd)
    )
    (fp_circle (center 0 0) (end 3.5 0) (layer "Cmts.User") (width 0.15) (fill none) (tstamp 154c859c-98ee-4639-8871-82c3fe885bb1))
    (fp_circle (center 0 0) (end 3.75 0) (layer "F.CrtYd") (width 0.05) (fill none) (tstamp dec38ac0-cf9d-4195-8a72-6a0da2311dce))
    (pad "1" thru_hole circle (at 0 0 180) (size 5.3 5.3) (drill 3.4) (layers *.Cu *.Mask)
      (net 1 "GND") (pinfunction "1") (pintype "input") (tstamp 25a077b0-5860-4b9d-a784-da21ed5f6ec7))
    (pad "1" connect circle (at 0 0 180) (size 5.3 5.3) (layers "F.Cu" "F.Mask")
      (net 1 "GND") (pinfunction "1") (pintype "input") (tstamp 95b6712f-45b0-469b-9777-e15f3808784f))
    (pad "1" connect circle (at 0 0 180) (size 5.3 5.3) (layers "B.Cu" "B.Mask")
      (net 1 "GND") (pinfunction "1") (pintype "input") (tstamp a6991019-238b-43a3-8f8c-ba311c573065))
  )

  (footprint "MountingHole:MountingHole_2.1mm" (layer "F.Cu")
    (tedit 5B924765) (tstamp 3350a0fe-0f11-48c7-aad6-485ce455a986)
    (at 142 104 180)
    (descr "Mounting Hole 2.1mm, no annular")
    (tags "mounting hole 2.1mm no annular")
    (property "Sheetfile" "Victors-PSU-Front.kicad_sch")
    (property "Sheetname" "")
    (path "/c463e777-3599-4ec7-a392-6ce804d9e1a2")
    (attr exclude_from_pos_files)
    (fp_text reference "H7" (at 0 -3.2) (layer "F.SilkS") hide
      (effects (font (size 1 1) (thickness 0.15)))
      (tstamp 8b67838e-3aba-4270-85c9-370e5eb4bcf6)
    )
    (fp_text value "Out+" (at 0 3.2) (layer "F.Fab")
      (effects (font (size 1 1) (thickness 0.15)))
      (tstamp c389d3bb-738b-4c08-84f7-1f07b7d12b5b)
    )
    (fp_text user "${REFERENCE}" (at 0 0) (layer "F.Fab")
      (effects (font (size 1 1) (thickness 0.15)))
      (tstamp 877fc9c2-8046-4a51-a7b6-d7b85b83cec6)
    )
    (fp_circle (center 0 0) (end 2.1 0) (layer "Cmts.User") (width 0.15) (fill none) (tstamp df94cb44-ba20-47bd-8911-40c9dd16f24f))
    (fp_circle (center 0 0) (end 2.35 0) (layer "F.CrtYd") (width 0.05) (fill none) (tstamp 4d3583be-697e-4ee2-945b-01281f1b7e0f))
    (pad "" np_thru_hole circle (at 0 0 180) (size 11.2 11.2) (drill 11.2) (layers F&B.Cu *.Mask) (tstamp 0caafdfb-af15-4c6d-a5ce-9190d226f327))
  )

  (footprint "MountingHole:MountingHole_3.5mm_Pad_TopBottom" (layer "F.Cu")
    (tedit 56D1B4CB) (tstamp 3393aabf-fb64-428c-9df0-dd695125f909)
    (at 103 77.55 180)
    (descr "Mounting Hole 3.5mm")
    (tags "mounting hole 3.5mm")
    (property "Sheetfile" "Victors-PSU-Front.kicad_sch")
    (property "Sheetname" "")
    (path "/7fa8b351-f8e3-4a97-8f34-c5cf8f645163")
    (attr exclude_from_pos_files)
    (fp_text reference "H3" (at 0 -4.5) (layer "F.SilkS") hide
      (effects (font (size 1 1) (thickness 0.15)))
      (tstamp 41f41d08-de40-4007-a2fe-9e341bc779f7)
    )
    (fp_text value "MH" (at 0 4.5) (layer "F.Fab")
      (effects (font (size 1 1) (thickness 0.15)))
      (tstamp d0721ce8-3e7b-4b45-bd14-2388bc3f1372)
    )
    (fp_text user "${REFERENCE}" (at 0 0) (layer "F.Fab")
      (effects (font (size 1 1) (thickness 0.15)))
      (tstamp eab0f1bc-eab6-4cb8-b68f-8ecf81504fb6)
    )
    (fp_circle (center 0 0) (end 3.5 0) (layer "Cmts.User") (width 0.15) (fill none) (tstamp 758cabf4-2f4e-4fd0-b185-c6a440f50e7d))
    (fp_circle (center 0 0) (end 3.75 0) (layer "F.CrtYd") (width 0.05) (fill none) (tstamp 74f42b7f-8590-46ba-9bc2-62da9a8179c7))
    (pad "1" thru_hole circle (at 0 0 180) (size 5.3 5.3) (drill 3.4) (layers *.Cu *.Mask)
      (net 1 "GND") (pinfunction "1") (pintype "input") (tstamp 2d11e21c-b571-41e4-9934-5020a2afe90e))
    (pad "1" connect circle (at 0 0 180) (size 5.3 5.3) (layers "B.Cu" "B.Mask")
      (net 1 "GND") (pinfunction "1") (pintype "input") (tstamp 7d0719c4-d324-4c38-ac6d-a8bab4566bc7))
    (pad "1" connect circle (at 0 0 180) (size 5.3 5.3) (layers "F.Cu" "F.Mask")
      (net 1 "GND") (pinfunction "1") (pintype "input") (tstamp f3de16b0-2fa5-436c-9d13-a9af3e9564c6))
  )

  (footprint "MountingHole:MountingHole_3.5mm_Pad_TopBottom" (layer "F.Cu")
    (tedit 56D1B4CB) (tstamp 3d52b0bc-40a4-404b-a7ef-3fdb7ff4f701)
    (at 103 116.45 180)
    (descr "Mounting Hole 3.5mm")
    (tags "mounting hole 3.5mm")
    (property "Sheetfile" "Victors-PSU-Front.kicad_sch")
    (property "Sheetname" "")
    (path "/e95ca810-3f5c-412c-9cd2-dc4a41dc88da")
    (attr exclude_from_pos_files)
    (fp_text reference "H4" (at 0 -4.5) (layer "F.SilkS") hide
      (effects (font (size 1 1) (thickness 0.15)))
      (tstamp 6d458374-ea30-4d21-b570-1e859a652ec5)
    )
    (fp_text value "MH" (at 0 4.5) (layer "F.Fab")
      (effects (font (size 1 1) (thickness 0.15)))
      (tstamp 67e31b81-c8c2-4c89-b5c0-f0f2a97748d8)
    )
    (fp_text user "${REFERENCE}" (at 0 0) (layer "F.Fab")
      (effects (font (size 1 1) (thickness 0.15)))
      (tstamp e4433a3e-297c-43ae-a25b-49698671b4b2)
    )
    (fp_circle (center 0 0) (end 3.5 0) (layer "Cmts.User") (width 0.15) (fill none) (tstamp 041e0695-441e-4c9f-85c0-e20164af0ab1))
    (fp_circle (center 0 0) (end 3.75 0) (layer "F.CrtYd") (width 0.05) (fill none) (tstamp 85a22a90-eb71-488c-9d53-696ddd152c12))
    (pad "1" connect circle (at 0 0 180) (size 5.3 5.3) (layers "B.Cu" "B.Mask")
      (net 1 "GND") (pinfunction "1") (pintype "input") (tstamp 21c8ef40-c457-49c3-b794-0541e41c2499))
    (pad "1" thru_hole circle (at 0 0 180) (size 5.3 5.3) (drill 3.4) (layers *.Cu *.Mask)
      (net 1 "GND") (pinfunction "1") (pintype "input") (tstamp a73660d3-15f6-4963-8c86-f0ab0c51c25b))
    (pad "1" connect circle (at 0 0 180) (size 5.3 5.3) (layers "F.Cu" "F.Mask")
      (net 1 "GND") (pinfunction "1") (pintype "input") (tstamp cb19b196-17b1-489a-a0dd-e81559d9f8ad))
  )

  (footprint "MountingHole:MountingHole_2.1mm" (layer "F.Cu")
    (tedit 5B924765) (tstamp 910b00bc-8aae-4624-9517-ac975b338a68)
    (at 161 104 180)
    (descr "Mounting Hole 2.1mm, no annular")
    (tags "mounting hole 2.1mm no annular")
    (property "Sheetfile" "Victors-PSU-Front.kicad_sch")
    (property "Sheetname" "")
    (path "/2d20b025-ccca-462f-9a62-ce2267e939d7")
    (attr exclude_from_pos_files)
    (fp_text reference "H8" (at 0 -3.2) (layer "F.SilkS") hide
      (effects (font (size 1 1) (thickness 0.15)))
      (tstamp dbadbc18-7506-49db-8d9a-edd2f798c7ca)
    )
    (fp_text value "Out-" (at 0 3.2) (layer "F.Fab")
      (effects (font (size 1 1) (thickness 0.15)))
      (tstamp 077d91e0-bd73-4890-afe3-48007480b172)
    )
    (fp_text user "${REFERENCE}" (at 0 0) (layer "F.Fab")
      (effects (font (size 1 1) (thickness 0.15)))
      (tstamp 3c98945b-d55a-49dc-9d9e-191020634c18)
    )
    (fp_circle (center 0 0) (end 2.1 0) (layer "Cmts.User") (width 0.15) (fill none) (tstamp 4b12c2f4-9e69-4ea3-929c-d6a20bea750c))
    (fp_circle (center 0 0) (end 2.35 0) (layer "F.CrtYd") (width 0.05) (fill none) (tstamp 06fe57b1-f6a0-4023-857e-36bdf7435b81))
    (pad "" np_thru_hole circle (at 0 0 180) (size 11.2 11.2) (drill 11.2) (layers F&B.Cu *.Mask) (tstamp f1f9fdf7-a255-4bc2-9bc6-9b7d65025edc))
  )

  (footprint "MountingHole:MountingHole_3.5mm_Pad_TopBottom" (layer "F.Cu")
    (tedit 56D1B4CB) (tstamp b348220c-3adf-4227-9472-e247a8439ccf)
    (at 200 77.55 180)
    (descr "Mounting Hole 3.5mm")
    (tags "mounting hole 3.5mm")
    (property "Sheetfile" "Victors-PSU-Front.kicad_sch")
    (property "Sheetname" "")
    (path "/c37787f3-7e84-4d72-8859-b79654bb7bef")
    (attr exclude_from_pos_files)
    (fp_text reference "H2" (at 0 -4.5) (layer "F.SilkS") hide
      (effects (font (size 1 1) (thickness 0.15)))
      (tstamp ec3bfc83-3ef8-4b55-b62d-aa4433a3bc38)
    )
    (fp_text value "MH" (at 0 4.5) (layer "F.Fab")
      (effects (font (size 1 1) (thickness 0.15)))
      (tstamp b3945249-98ad-46ff-847b-af578dacf250)
    )
    (fp_text user "${REFERENCE}" (at 0 0) (layer "F.Fab")
      (effects (font (size 1 1) (thickness 0.15)))
      (tstamp 3719357d-0a9f-49a4-8967-2fc0e92b9945)
    )
    (fp_circle (center 0 0) (end 3.5 0) (layer "Cmts.User") (width 0.15) (fill none) (tstamp ebecf3d1-124a-4db6-a3bf-46b4d6b2a4aa))
    (fp_circle (center 0 0) (end 3.75 0) (layer "F.CrtYd") (width 0.05) (fill none) (tstamp d1ccfcfd-465c-44f3-907d-a7e7f1633d5d))
    (pad "1" thru_hole circle (at 0 0 180) (size 5.3 5.3) (drill 3.4) (layers *.Cu *.Mask)
      (net 1 "GND") (pinfunction "1") (pintype "input") (tstamp 12b10359-9710-47ae-b44b-b6921ed04265))
    (pad "1" connect circle (at 0 0 180) (size 5.3 5.3) (layers "F.Cu" "F.Mask")
      (net 1 "GND") (pinfunction "1") (pintype "input") (tstamp 327df8cb-dc2b-40d4-8e59-9e3f16301d8d))
    (pad "1" connect circle (at 0 0 180) (size 5.3 5.3) (layers "B.Cu" "B.Mask")
      (net 1 "GND") (pinfunction "1") (pintype "input") (tstamp 77a8c07f-ac5c-419e-a4bf-456869b60e8b))
  )

  (footprint "MountingHole:MountingHole_3.5mm_Pad_TopBottom" (layer "F.Cu")
    (tedit 56D1B4CB) (tstamp efb9961d-a23b-490b-8030-a8930586356a)
    (at 123 104.25 180)
    (descr "Mounting Hole 3.5mm")
    (tags "mounting hole 3.5mm")
    (property "Sheetfile" "Victors-PSU-Front.kicad_sch")
    (property "Sheetname" "")
    (path "/0684250f-83c0-4f08-8621-46b9a002e2ad")
    (attr exclude_from_pos_files)
    (fp_text reference "H5" (at 0 -4.5) (layer "F.SilkS") hide
      (effects (font (size 1 1) (thickness 0.15)))
      (tstamp 768dff80-5b1d-4735-8dd4-b8e3537153bb)
    )
    (fp_text value "Out1" (at 0 4.5) (layer "F.Fab")
      (effects (font (size 1 1) (thickness 0.15)))
      (tstamp 39e139a7-19fe-4075-818f-ccf8e64427e5)
    )
    (fp_text user "${REFERENCE}" (at 0 0) (layer "F.Fab")
      (effects (font (size 1 1) (thickness 0.15)))
      (tstamp 08276001-97d4-4c57-8cb2-d077fb606128)
    )
    (fp_circle (center 0 0) (end 3.5 0) (layer "Cmts.User") (width 0.15) (fill none) (tstamp 687bba02-28a0-45c0-93d2-2b123cf03d28))
    (fp_circle (center 0 0) (end 3.75 0) (layer "F.CrtYd") (width 0.05) (fill none) (tstamp 3e349673-a581-406a-9e59-60f106999529))
    (pad "1" thru_hole circle (at 0 0 180) (size 11 11) (drill 8.5) (layers *.Cu *.Mask)
      (net 1 "GND") (pinfunction "1") (pintype "input") (tstamp 4e53e2ae-9b59-48ef-a42a-d11be191b19d))
    (pad "1" connect circle (at 0 0 180) (size 5.6 5.6) (layers "F.Cu" "F.Mask")
      (net 1 "GND") (pinfunction "1") (pintype "input") (tstamp 639af591-f771-4706-b7e0-3a061b37aa48))
    (pad "1" thru_hole circle (at 0 0 180) (size 5.6 5.6) (drill 3) (layers *.Cu *.Mask)
      (net 1 "GND") (pinfunction "1") (pintype "input") (tstamp dd58f067-4635-4422-92cd-2ad20cd08432))
  )

  (gr_line (start 206.5 97.7) (end 98.75 97.7) (layer "Dwgs.User") (width 0.1) (tstamp 011548ff-4291-4dc5-8631-00a657772bd7))
  (gr_line (start 206.5 118) (end 98.75 118) (layer "Dwgs.User") (width 0.1) (tstamp 35a8e544-78e6-4b5d-b16a-175278a14a17))
  (gr_line (start 98.75 120) (end 98.75 74) (layer "Edge.Cuts") (width 0.1) (tstamp 128e6d30-21bf-4d4a-97c8-fc9943111e98))
  (gr_arc (start 98.75 74) (mid 99.116117 73.116117) (end 100 72.75) (layer "Edge.Cuts") (width 0.1) (tstamp 38581bcf-8064-47ea-8382-00babb659d59))
  (gr_arc (start 203 72.75) (mid 203.883883 73.116117) (end 204.25 74) (layer "Edge.Cuts") (width 0.1) (tstamp 55e3669d-61ac-4d7a-b875-f9c9252c5bb1))
  (gr_line (start 203 72.75) (end 100 72.75) (layer "Edge.Cuts") (width 0.1) (tstamp 6e72a853-fcfa-4720-8148-6036741a588c))
  (gr_line (start 204.25 120) (end 204.25 74) (layer "Edge.Cuts") (width 0.1) (tstamp 8975baae-2628-4be1-9171-053117d95f57))
  (gr_arc (start 204.25 120) (mid 203.883883 120.883883) (end 203 121.25) (layer "Edge.Cuts") (width 0.1) (tstamp 920e0d2b-da7f-4224-9f4a-e71d627075a4))
  (gr_line (start 203 121.25) (end 100 121.25) (layer "Edge.Cuts") (width 0.1) (tstamp b58d4bc9-d017-46b2-8512-0893f7886366))
  (gr_arc (start 100 121.25) (mid 99.116117 120.883883) (end 98.75 120) (layer "Edge.Cuts") (width 0.1) (tstamp ca878ef0-6d99-4d97-a517-0cf3e2a36db3))
  (gr_text "JLCJLCJLCJLC" (at 114.01 77.55) (layer "B.SilkS") (tstamp ade80119-90df-4d8b-8452-dbba90f0411f)
    (effects (font (size 1 1) (thickness 0.15)) (justify mirror))
  )
  (gr_text "35V DC\ncenter pos." (at 180 93.75) (layer "F.SilkS") (tstamp 3eb653c8-8c93-4b9a-a94d-0ec85918bb74)
    (effects (font (size 2 2) (thickness 0.3)))
  )
  (gr_text "35V DC\n-           +" (at 151.5 93.75) (layer "F.SilkS") (tstamp ca508c9b-5ca5-470d-80c6-8b0e6ed9e55f)
    (effects (font (size 2 2) (thickness 0.3)))
  )
  (gr_text "35V DC\ncenter pos." (at 123 93.75) (layer "F.SilkS") (tstamp cfe1756c-a15e-4b23-922a-b258044d6cb7)
    (effects (font (size 2 2) (thickness 0.3)))
  )
  (gr_text "top side of PCB" (at 213 97.7) (layer "Dwgs.User") (tstamp 4d3f6ef2-d271-4729-bcb6-c520dbb4a232)
    (effects (font (size 1 1) (thickness 0.15)))
  )
  (gr_text "Inner top side of case" (at 215.5 118) (layer "Dwgs.User") (tstamp 66a899b3-7b61-4bcc-9edb-fa13cb803926)
    (effects (font (size 1 1) (thickness 0.15)))
  )
  (dimension (type aligned) (layer "Dwgs.User") (tstamp 1dbee1e5-bed0-4432-96b8-066c6ab92f48)
    (pts (xy 161 104) (xy 161 97.7))
    (height 6.8)
    (gr_text "6,3000 mm" (at 169.4 102.2 90) (layer "Dwgs.User") (tstamp 1dbee1e5-bed0-4432-96b8-066c6ab92f48)
      (effects (font (size 1 1) (thickness 0.15)))
    )
    (format (units 3) (units_format 1) (precision 4))
    (style (thickness 0.15) (arrow_length 1.27) (text_position_mode 2) (extension_height 0.58642) (extension_offset 0.5) keep_text_aligned)
  )
  (dimension (type aligned) (layer "Dwgs.User") (tstamp 95c85624-e79b-4aeb-9cf2-575ae0303bb1)
    (pts (xy 111.7 118) (xy 111.7 97.7))
    (height 0)
    (gr_text "20,3000 mm" (at 110.55 107.85 90) (layer "Dwgs.User") (tstamp 95c85624-e79b-4aeb-9cf2-575ae0303bb1)
      (effects (font (size 1 1) (thickness 0.15)))
    )
    (format (units 3) (units_format 1) (precision 4))
    (style (thickness 0.15) (arrow_length 1.27) (text_position_mode 0) (extension_height 0.58642) (extension_offset 0.5) keep_text_aligned)
  )
  (dimension (type aligned) (layer "Dwgs.User") (tstamp ad227151-6fe4-45db-bbe4-6acbef1ccfaf)
    (pts (xy 100 121.25) (xy 100 72.75))
    (height -4.2)
    (gr_text "48,5000 mm" (at 94.65 97 90) (layer "Dwgs.User") (tstamp ad227151-6fe4-45db-bbe4-6acbef1ccfaf)
      (effects (font (size 1 1) (thickness 0.15)))
    )
    (format (units 3) (units_format 1) (precision 4))
    (style (thickness 0.15) (arrow_length 1.27) (text_position_mode 0) (extension_height 0.58642) (extension_offset 0.5) keep_text_aligned)
  )
  (dimension (type aligned) (layer "Dwgs.User") (tstamp dbd58b6a-a1b9-4171-8adc-241e105635d4)
    (pts (xy 98.75 120) (xy 204.25 120))
    (height 3.199999)
    (gr_text "105,5000 mm" (at 151.5 122.049999) (layer "Dwgs.User") (tstamp dbd58b6a-a1b9-4171-8adc-241e105635d4)
      (effects (font (size 1 1) (thickness 0.15)))
    )
    (format (units 3) (units_format 1) (precision 4))
    (style (thickness 0.15) (arrow_length 1.27) (text_position_mode 0) (extension_height 0.58642) (extension_offset 0.5) keep_text_aligned)
  )
  (dimension (type aligned) (layer "Dwgs.User") (tstamp e0cbc9d7-336f-4e79-9551-1f6d3dd02301)
    (pts (xy 180 104.25) (xy 180 97.7))
    (height 7.5)
    (gr_text "6,5500 mm" (at 189 102.2 90) (layer "Dwgs.User") (tstamp e0cbc9d7-336f-4e79-9551-1f6d3dd02301)
      (effects (font (size 1 1) (thickness 0.15)))
    )
    (format (units 3) (units_format 1) (precision 4))
    (style (thickness 0.15) (arrow_length 1.27) (text_position_mode 2) (extension_height 0.58642) (extension_offset 0.5) keep_text_aligned)
  )

  (zone (net 1) (net_name "GND") (layers F&B.Cu) (tstamp 33c5f1b9-ebd4-48ac-997d-b20c2f149c6c) (hatch edge 0.508)
    (connect_pads yes (clearance 0.508))
    (min_thickness 0.254) (filled_areas_thickness no)
    (fill yes (thermal_gap 0.508) (thermal_bridge_width 0.508))
    (polygon
      (pts
        (xy 98.75 72.75)
        (xy 204.25 72.75)
        (xy 204.25 121.25)
        (xy 98.75 121.25)
      )
    )
    (filled_polygon
      (layer "F.Cu")
      (pts
        (xy 202.970018 73.26)
        (xy 202.984852 73.26231)
        (xy 202.984855 73.26231)
        (xy 202.993724 73.263691)
        (xy 203.004746 73.26225)
        (xy 203.03343 73.261793)
        (xy 203.132309 73.271532)
        (xy 203.156527 73.276348)
        (xy 203.271886 73.311341)
        (xy 203.294706 73.320794)
        (xy 203.401009 73.377614)
        (xy 203.421547 73.391337)
        (xy 203.514727 73.467808)
        (xy 203.532192 73.485273)
        (xy 203.608663 73.578453)
        (xy 203.622386 73.598991)
        (xy 203.679206 73.705294)
        (xy 203.688659 73.728113)
        (xy 203.723652 73.843473)
        (xy 203.728469 73.867695)
        (xy 203.737541 73.95981)
        (xy 203.737091 73.975868)
        (xy 203.7378 73.975877)
        (xy 203.73769 73.984853)
        (xy 203.736309 73.993724)
        (xy 203.737473 74.002626)
        (xy 203.737473 74.002628)
        (xy 203.740436 74.025283)
        (xy 203.7415 74.041621)
        (xy 203.7415 119.950633)
        (xy 203.74 119.970018)
        (xy 203.736309 119.993724)
        (xy 203.737473 120.002624)
        (xy 203.73775 120.004743)
        (xy 203.738207 120.033434)
        (xy 203.728469 120.132306)
        (xy 203.723652 120.156527)
        (xy 203.695025 120.2509)
        (xy 203.688659 120.271886)
        (xy 203.679206 120.294706)
        (xy 203.622386 120.401009)
        (xy 203.608663 120.421547)
        (xy 203.532192 120.514727)
        (xy 203.514727 120.532192)
        (xy 203.421547 120.608663)
        (xy 203.401009 120.622386)
        (xy 203.294706 120.679206)
        (xy 203.271887 120.688659)
        (xy 203.156527 120.723652)
        (xy 203.132307 120.728469)
        (xy 203.104481 120.731209)
        (xy 203.04019 120.737541)
        (xy 203.024132 120.737091)
        (xy 203.024123 120.7378)
        (xy 203.015147 120.73769)
        (xy 203.006276 120.736309)
        (xy 202.997374 120.737473)
        (xy 202.997372 120.737473)
        (xy 202.984856 120.73911)
        (xy 202.974714 120.740436)
        (xy 202.958379 120.7415)
        (xy 100.049367 120.7415)
        (xy 100.029982 120.74)
        (xy 100.015148 120.73769)
        (xy 100.015145 120.73769)
        (xy 100.006276 120.736309)
        (xy 99.995254 120.73775)
        (xy 99.96657 120.738207)
        (xy 99.867691 120.728468)
        (xy 99.843473 120.723652)
        (xy 99.728113 120.688659)
        (xy 99.705294 120.679206)
        (xy 99.598991 120.622386)
        (xy 99.578453 120.608663)
        (xy 99.485273 120.532192)
        (xy 99.467808 120.514727)
        (xy 99.391337 120.421547)
        (xy 99.377614 120.401009)
        (xy 99.320794 120.294706)
        (xy 99.311342 120.271886)
        (xy 99.27635 120.156533)
        (xy 99.271531 120.132307)
        (xy 99.262711 120.042753)
        (xy 99.262608 120.019149)
        (xy 99.26277 120.017343)
        (xy 99.263576 120.012552)
        (xy 99.263729 120)
        (xy 99.259773 119.972376)
        (xy 99.2585 119.954514)
        (xy 99.2585 104.213357)
        (xy 135.890266 104.213357)
        (xy 135.927057 104.702663)
        (xy 136.002972 105.187444)
        (xy 136.117521 105.664574)
        (xy 136.118302 105.666964)
        (xy 136.118305 105.666974)
        (xy 136.269182 106.128583)
        (xy 136.269966 106.130981)
        (xy 136.459325 106.583659)
        (xy 136.684379 107.019693)
        (xy 136.943678 107.436273)
        (xy 137.23555 107.830716)
        (xy 137.558116 108.200481)
        (xy 137.909298 108.543185)
        (xy 137.911235 108.544794)
        (xy 137.911246 108.544803)
        (xy 137.962526 108.587376)
        (xy 138.286833 108.85662)
        (xy 138.68829 109.138769)
        (xy 138.690467 109.140051)
        (xy 138.690468 109.140052)
        (xy 139.108897 109.386526)
        (xy 139.108906 109.386531)
        (xy 139.111081 109.387812)
        (xy 139.113354 109.388916)
        (xy 139.113362 109.38892)
        (xy 139.550202 109.601038)
        (xy 139.550214 109.601043)
        (xy 139.552483 109.602145)
        (xy 139.619724 109.628361)
        (xy 140.007287 109.779466)
        (xy 140.007297 109.77947)
        (xy 140.009653 109.780388)
        (xy 140.479645 109.921392)
        (xy 140.482097 109.921918)
        (xy 140.482106 109.92192)
        (xy 140.956971 110.023723)
        (xy 140.95698 110.023725)
        (xy 140.959431 110.02425)
        (xy 141.161075 110.050797)
        (xy 141.443414 110.087967)
        (xy 141.443418 110.087967)
        (xy 141.445922 110.088297)
        (xy 141.448436 110.088424)
        (xy 141.448443 110.088425)
        (xy 141.843136 110.10842)
        (xy 141.843153 110.10842)
        (xy 141.844724 110.1085)
        (xy 142.123445 110.1085)
        (xy 142.341239 110.099753)
        (xy 142.487758 110.093868)
        (xy 142.487763 110.093868)
        (xy 142.490293 110.093766)
        (xy 142.73386 110.064291)
        (xy 142.974909 110.035121)
        (xy 142.974916 110.03512)
        (xy 142.977427 110.034816)
        (xy 142.979889 110.034315)
        (xy 142.979902 110.034313)
        (xy 143.261729 109.976974)
        (xy 143.458264 109.936989)
        (xy 143.728433 109.859009)
        (xy 143.927276 109.801616)
        (xy 143.927283 109.801614)
        (xy 143.929707 109.800914)
        (xy 144.388718 109.627468)
        (xy 144.832341 109.417768)
        (xy 145.009474 109.315912)
        (xy 145.255518 109.174431)
        (xy 145.255527 109.174425)
        (xy 145.257717 109.173166)
        (xy 145.662106 108.895238)
        (xy 145.707835 108.858075)
        (xy 146.04093 108.587376)
        (xy 146.040936 108.587371)
        (xy 146.042902 108.585773)
        (xy 146.397654 108.246765)
        (xy 146.438892 108.200481)
        (xy 146.722399 107.882278)
        (xy 146.724074 107.880398)
        (xy 146.725595 107.878387)
        (xy 147.018544 107.491039)
        (xy 147.018545 107.491037)
        (xy 147.020061 107.489033)
        (xy 147.283708 107.075191)
        (xy 147.513315 106.641538)
        (xy 147.707405 106.190867)
        (xy 147.864726 105.726083)
        (xy 147.984265 105.250178)
        (xy 148.065252 104.766219)
        (xy 148.107165 104.277325)
        (xy 148.1075 104.213357)
        (xy 154.890266 104.213357)
        (xy 154.927057 104.702663)
        (xy 155.002972 105.187444)
        (xy 155.117521 105.664574)
        (xy 155.118302 105.666964)
        (xy 155.118305 105.666974)
        (xy 155.269182 106.128583)
        (xy 155.269966 106.130981)
        (xy 155.459325 106.583659)
        (xy 155.684379 107.019693)
        (xy 155.943678 107.436273)
        (xy 156.23555 107.830716)
        (xy 156.558116 108.200481)
        (xy 156.909298 108.543185)
        (xy 156.911235 108.544794)
        (xy 156.911246 108.544803)
        (xy 156.962526 108.587376)
        (xy 157.286833 108.85662)
        (xy 157.68829 109.138769)
        (xy 157.690467 109.140051)
        (xy 157.690468 109.140052)
        (xy 158.108897 109.386526)
        (xy 158.108906 109.386531)
        (xy 158.111081 109.387812)
        (xy 158.113354 109.388916)
        (xy 158.113362 109.38892)
        (xy 158.550202 109.601038)
        (xy 158.550214 109.601043)
        (xy 158.552483 109.602145)
        (xy 158.619724 109.628361)
        (xy 159.007287 109.779466)
        (xy 159.007297 109.77947)
        (xy 159.009653 109.780388)
        (xy 159.479645 109.921392)
        (xy 159.482097 109.921918)
        (xy 159.482106 109.92192)
        (xy 159.956971 110.023723)
        (xy 159.95698 110.023725)
        (xy 159.959431 110.02425)
        (xy 160.161075 110.050797)
        (xy 160.443414 110.087967)
        (xy 160.443418 110.087967)
        (xy 160.445922 110.088297)
        (xy 160.448436 110.088424)
        (xy 160.448443 110.088425)
        (xy 160.843136 110.10842)
        (xy 160.843153 110.10842)
        (xy 160.844724 110.1085)
        (xy 161.123445 110.1085)
        (xy 161.341239 110.099753)
        (xy 161.487758 110.093868)
        (xy 161.487763 110.093868)
        (xy 161.490293 110.093766)
        (xy 161.73386 110.064291)
        (xy 161.974909 110.035121)
        (xy 161.974916 110.03512)
        (xy 161.977427 110.034816)
        (xy 161.979889 110.034315)
        (xy 161.979902 110.034313)
        (xy 162.261729 109.976974)
        (xy 162.458264 109.936989)
        (xy 162.728433 109.859009)
        (xy 162.927276 109.801616)
        (xy 162.927283 109.801614)
        (xy 162.929707 109.800914)
        (xy 163.388718 109.627468)
        (xy 163.832341 109.417768)
        (xy 164.009474 109.315912)
        (xy 164.255518 109.174431)
        (xy 164.255527 109.174425)
        (xy 164.257717 109.173166)
        (xy 164.662106 108.895238)
        (xy 164.707835 108.858075)
        (xy 165.04093 108.587376)
        (xy 165.040936 108.587371)
        (xy 165.042902 108.585773)
        (xy 165.397654 108.246765)
        (xy 165.438892 108.200481)
        (xy 165.722399 107.882278)
        (xy 165.724074 107.880398)
        (xy 165.725595 107.878387)
        (xy 166.018544 107.491039)
        (xy 166.018545 107.491037)
        (xy 166.020061 107.489033)
        (xy 166.283708 107.075191)
        (xy 166.513315 106.641538)
        (xy 166.707405 106.190867)
        (xy 166.864726 105.726083)
        (xy 166.984265 105.250178)
        (xy 167.065252 104.766219)
        (xy 167.107165 104.277325)
        (xy 167.109734 103.786643)
        (xy 167.072943 103.297337)
        (xy 166.997028 102.812556)
        (xy 166.882479 102.335426)
        (xy 166.86318 102.276378)
        (xy 166.730818 101.871417)
        (xy 166.730816 101.871412)
        (xy 166.730034 101.869019)
        (xy 166.540675 101.416341)
        (xy 166.315621 100.980307)
        (xy 166.056322 100.563727)
        (xy 165.76445 100.169284)
        (xy 165.441884 99.799519)
        (xy 165.090702 99.456815)
        (xy 165.088765 99.455206)
        (xy 165.088754 99.455197)
        (xy 164.715118 99.145)
        (xy 164.713167 99.14338)
        (xy 164.31171 98.861231)
        (xy 164.255752 98.828269)
        (xy 163.891103 98.613474)
        (xy 163.891094 98.613469)
        (xy 163.888919 98.612188)
        (xy 163.886646 98.611084)
        (xy 163.886638 98.61108)
        (xy 163.449798 98.398962)
        (xy 163.449786 98.398957)
        (xy 163.447517 98.397855)
        (xy 163.252221 98.321712)
        (xy 162.992713 98.220534)
        (xy 162.992703 98.22053)
        (xy 162.990347 98.219612)
        (xy 162.520355 98.078608)
        (xy 162.517903 98.078082)
        (xy 162.517894 98.07808)
        (xy 162.043029 97.976277)
        (xy 162.04302 97.976275)
        (xy 162.040569 97.97575)
        (xy 161.838925 97.949203)
        (xy 161.556586 97.912033)
        (xy 161.556582 97.912033)
        (xy 161.554078 97.911703)
        (xy 161.551564 97.911576)
        (xy 161.551557 97.911575)
        (xy 161.156864 97.89158)
        (xy 161.156847 97.89158)
        (xy 161.155276 97.8915)
        (xy 160.876555 97.8915)
        (xy 160.658761 97.900247)
        (xy 160.512242 97.906132)
        (xy 160.512237 97.906132)
        (xy 160.509707 97.906234)
        (xy 160.26614 97.935709)
        (xy 160.025091 97.964879)
        (xy 160.025084 97.96488)
        (xy 160.022573 97.965184)
        (xy 160.020111 97.965685)
        (xy 160.020098 97.965687)
        (xy 159.738271 98.023026)
        (xy 159.541736 98.063011)
        (xy 159.271567 98.140991)
        (xy 159.072724 98.198384)
        (xy 159.072717 98.198386)
        (xy 159.070293 98.199086)
        (xy 158.611282 98.372532)
        (xy 158.167659 98.582232)
        (xy 157.990526 98.684088)
        (xy 157.744482 98.825569)
        (xy 157.744473 98.825575)
        (xy 157.742283 98.826834)
        (xy 157.337894 99.104762)
        (xy 157.335932 99.106357)
        (xy 157.33593 99.106358)
        (xy 157.290375 99.14338)
        (xy 156.957098 99.414227)
        (xy 156.602346 99.753235)
        (xy 156.600672 99.755113)
        (xy 156.600667 99.755119)
        (xy 156.559413 99.801422)
        (xy 156.275926 100.119602)
        (xy 156.274406 100.121612)
        (xy 156.274405 100.121613)
        (xy 156.23979 100.167383)
        (xy 155.979939 100.510967)
        (xy 155.716292 100.924809)
        (xy 155.486685 101.358462)
        (xy 155.292595 101.809133)
        (xy 155.135274 102.273917)
        (xy 155.015735 102.749822)
        (xy 154.934748 103.233781)
        (xy 154.892835 103.722675)
        (xy 154.890266 104.213357)
        (xy 148.1075 104.213357)
        (xy 148.109734 103.786643)
        (xy 148.072943 103.297337)
        (xy 147.997028 102.812556)
        (xy 147.882479 102.335426)
        (xy 147.86318 102.276378)
        (xy 147.730818 101.871417)
        (xy 147.730816 101.871412)
        (xy 147.730034 101.869019)
        (xy 147.540675 101.416341)
        (xy 147.315621 100.980307)
        (xy 147.056322 100.563727)
        (xy 146.76445 100.169284)
        (xy 146.441884 99.799519)
        (xy 146.090702 99.456815)
        (xy 146.088765 99.455206)
        (xy 146.088754 99.455197)
        (xy 145.715118 99.145)
        (xy 145.713167 99.14338)
        (xy 145.31171 98.861231)
        (xy 145.255752 98.828269)
        (xy 144.891103 98.613474)
        (xy 144.891094 98.613469)
        (xy 144.888919 98.612188)
        (xy 144.886646 98.611084)
        (xy 144.886638 98.61108)
        (xy 144.449798 98.398962)
        (xy 144.449786 98.398957)
        (xy 144.447517 98.397855)
        (xy 144.252221 98.321712)
        (xy 143.992713 98.220534)
        (xy 143.992703 98.22053)
        (xy 143.990347 98.219612)
        (xy 143.520355 98.078608)
        (xy 143.517903 98.078082)
        (xy 143.517894 98.07808)
        (xy 143.043029 97.976277)
        (xy 143.04302 97.976275)
        (xy 143.040569 97.97575)
        (xy 142.838925 97.949203)
        (xy 142.556586 97.912033)
        (xy 142.556582 97.912033)
        (xy 142.554078 97.911703)
        (xy 142.551564 97.911576)
        (xy 142.551557 97.911575)
        (xy 142.156864 97.89158)
        (xy 142.156847 97.89158)
        (xy 142.155276 97.8915)
        (xy 141.876555 97.8915)
        (xy 141.658761 97.900247)
        (xy 141.512242 97.906132)
        (xy 141.512237 97.906132)
        (xy 141.509707 97.906234)
        (xy 141.26614 97.935709)
        (xy 141.025091 97.964879)
        (xy 141.025084 97.96488)
        (xy 141.022573 97.965184)
        (xy 141.020111 97.965685)
        (xy 141.020098 97.965687)
        (xy 140.738271 98.023026)
        (xy 140.541736 98.063011)
        (xy 140.271567 98.140991)
        (xy 140.072724 98.198384)
        (xy 140.072717 98.198386)
        (xy 140.070293 98.199086)
        (xy 139.611282 98.372532)
        (xy 139.167659 98.582232)
        (xy 138.990526 98.684088)
        (xy 138.744482 98.825569)
        (xy 138.744473 98.825575)
        (xy 138.742283 98.826834)
        (xy 138.337894 99.104762)
        (xy 138.335932 99.106357)
        (xy 138.33593 99.106358)
        (xy 138.290375 99.14338)
        (xy 137.957098 99.414227)
        (xy 137.602346 99.753235)
        (xy 137.600672 99.755113)
        (xy 137.600667 99.755119)
        (xy 137.559413 99.801422)
        (xy 137.275926 100.119602)
        (xy 137.274406 100.121612)
        (xy 137.274405 100.121613)
        (xy 137.23979 100.167383)
        (xy 136.979939 100.510967)
        (xy 136.716292 100.924809)
        (xy 136.486685 101.358462)
        (xy 136.292595 101.809133)
        (xy 136.135274 102.273917)
        (xy 136.015735 102.749822)
        (xy 135.934748 103.233781)
        (xy 135.892835 103.722675)
        (xy 135.890266 104.213357)
        (xy 99.2585 104.213357)
        (xy 99.2585 74.05325)
        (xy 99.260246 74.032345)
        (xy 99.26277 74.017344)
        (xy 99.26277 74.017341)
        (xy 99.263576 74.012552)
        (xy 99.263729 74)
        (xy 99.262788 73.993429)
        (xy 99.262123 73.963218)
        (xy 99.271531 73.867694)
        (xy 99.276348 73.843473)
        (xy 99.311341 73.728113)
        (xy 99.320794 73.705294)
        (xy 99.377614 73.598991)
        (xy 99.391337 73.578453)
        (xy 99.467808 73.485273)
        (xy 99.485273 73.467808)
        (xy 99.578453 73.391337)
        (xy 99.598991 73.377614)
        (xy 99.705294 73.320794)
        (xy 99.728114 73.311341)
        (xy 99.843473 73.276348)
        (xy 99.867693 73.271531)
        (xy 99.895519 73.268791)
        (xy 99.95981 73.262459)
        (xy 99.975868 73.262909)
        (xy 99.975877 73.2622)
        (xy 99.984853 73.26231)
        (xy 99.993724 73.263691)
        (xy 100.002626 73.262527)
        (xy 100.002628 73.262527)
        (xy 100.019059 73.260378)
        (xy 100.025286 73.259564)
        (xy 100.041621 73.2585)
        (xy 202.950633 73.2585)
      )
    )
    (filled_polygon
      (layer "B.Cu")
      (pts
        (xy 202.970018 73.26)
        (xy 202.984852 73.26231)
        (xy 202.984855 73.26231)
        (xy 202.993724 73.263691)
        (xy 203.004746 73.26225)
        (xy 203.03343 73.261793)
        (xy 203.132309 73.271532)
        (xy 203.156527 73.276348)
        (xy 203.271886 73.311341)
        (xy 203.294706 73.320794)
        (xy 203.401009 73.377614)
        (xy 203.421547 73.391337)
        (xy 203.514727 73.467808)
        (xy 203.532192 73.485273)
        (xy 203.608663 73.578453)
        (xy 203.622386 73.598991)
        (xy 203.679206 73.705294)
        (xy 203.688659 73.728113)
        (xy 203.723652 73.843473)
        (xy 203.728469 73.867695)
        (xy 203.737541 73.95981)
        (xy 203.737091 73.975868)
        (xy 203.7378 73.975877)
        (xy 203.73769 73.984853)
        (xy 203.736309 73.993724)
        (xy 203.737473 74.002626)
        (xy 203.737473 74.002628)
        (xy 203.740436 74.025283)
        (xy 203.7415 74.041621)
        (xy 203.7415 119.950633)
        (xy 203.74 119.970018)
        (xy 203.736309 119.993724)
        (xy 203.737473 120.002624)
        (xy 203.73775 120.004743)
        (xy 203.738207 120.033434)
        (xy 203.728469 120.132306)
        (xy 203.723652 120.156527)
        (xy 203.695025 120.2509)
        (xy 203.688659 120.271886)
        (xy 203.679206 120.294706)
        (xy 203.622386 120.401009)
        (xy 203.608663 120.421547)
        (xy 203.532192 120.514727)
        (xy 203.514727 120.532192)
        (xy 203.421547 120.608663)
        (xy 203.401009 120.622386)
        (xy 203.294706 120.679206)
        (xy 203.271887 120.688659)
        (xy 203.156527 120.723652)
        (xy 203.132307 120.728469)
        (xy 203.104481 120.731209)
        (xy 203.04019 120.737541)
        (xy 203.024132 120.737091)
        (xy 203.024123 120.7378)
        (xy 203.015147 120.73769)
        (xy 203.006276 120.736309)
        (xy 202.997374 120.737473)
        (xy 202.997372 120.737473)
        (xy 202.984856 120.73911)
        (xy 202.974714 120.740436)
        (xy 202.958379 120.7415)
        (xy 100.049367 120.7415)
        (xy 100.029982 120.74)
        (xy 100.015148 120.73769)
        (xy 100.015145 120.73769)
        (xy 100.006276 120.736309)
        (xy 99.995254 120.73775)
        (xy 99.96657 120.738207)
        (xy 99.867691 120.728468)
        (xy 99.843473 120.723652)
        (xy 99.728113 120.688659)
        (xy 99.705294 120.679206)
        (xy 99.598991 120.622386)
        (xy 99.578453 120.608663)
        (xy 99.485273 120.532192)
        (xy 99.467808 120.514727)
        (xy 99.391337 120.421547)
        (xy 99.377614 120.401009)
        (xy 99.320794 120.294706)
        (xy 99.311342 120.271886)
        (xy 99.27635 120.156533)
        (xy 99.271531 120.132307)
        (xy 99.262711 120.042753)
        (xy 99.262608 120.019149)
        (xy 99.26277 120.017343)
        (xy 99.263576 120.012552)
        (xy 99.263729 120)
        (xy 99.259773 119.972376)
        (xy 99.2585 119.954514)
        (xy 99.2585 104.213357)
        (xy 135.890266 104.213357)
        (xy 135.927057 104.702663)
        (xy 136.002972 105.187444)
        (xy 136.117521 105.664574)
        (xy 136.118302 105.666964)
        (xy 136.118305 105.666974)
        (xy 136.269182 106.128583)
        (xy 136.269966 106.130981)
        (xy 136.459325 106.583659)
        (xy 136.684379 107.019693)
        (xy 136.943678 107.436273)
        (xy 137.23555 107.830716)
        (xy 137.558116 108.200481)
        (xy 137.909298 108.543185)
        (xy 137.911235 108.544794)
        (xy 137.911246 108.544803)
        (xy 137.962526 108.587376)
        (xy 138.286833 108.85662)
        (xy 138.68829 109.138769)
        (xy 138.690467 109.140051)
        (xy 138.690468 109.140052)
        (xy 139.108897 109.386526)
        (xy 139.108906 109.386531)
        (xy 139.111081 109.387812)
        (xy 139.113354 109.388916)
        (xy 139.113362 109.38892)
        (xy 139.550202 109.601038)
        (xy 139.550214 109.601043)
        (xy 139.552483 109.602145)
        (xy 139.619724 109.628361)
        (xy 140.007287 109.779466)
        (xy 140.007297 109.77947)
        (xy 140.009653 109.780388)
        (xy 140.479645 109.921392)
        (xy 140.482097 109.921918)
        (xy 140.482106 109.92192)
        (xy 140.956971 110.023723)
        (xy 140.95698 110.023725)
        (xy 140.959431 110.02425)
        (xy 141.161075 110.050797)
        (xy 141.443414 110.087967)
        (xy 141.443418 110.087967)
        (xy 141.445922 110.088297)
        (xy 141.448436 110.088424)
        (xy 141.448443 110.088425)
        (xy 141.843136 110.10842)
        (xy 141.843153 110.10842)
        (xy 141.844724 110.1085)
        (xy 142.123445 110.1085)
        (xy 142.341239 110.099753)
        (xy 142.487758 110.093868)
        (xy 142.487763 110.093868)
        (xy 142.490293 110.093766)
        (xy 142.73386 110.064291)
        (xy 142.974909 110.035121)
        (xy 142.974916 110.03512)
        (xy 142.977427 110.034816)
        (xy 142.979889 110.034315)
        (xy 142.979902 110.034313)
        (xy 143.261729 109.976974)
        (xy 143.458264 109.936989)
        (xy 143.728433 109.859009)
        (xy 143.927276 109.801616)
        (xy 143.927283 109.801614)
        (xy 143.929707 109.800914)
        (xy 144.388718 109.627468)
        (xy 144.832341 109.417768)
        (xy 145.009474 109.315912)
        (xy 145.255518 109.174431)
        (xy 145.255527 109.174425)
        (xy 145.257717 109.173166)
        (xy 145.662106 108.895238)
        (xy 145.707835 108.858075)
        (xy 146.04093 108.587376)
        (xy 146.040936 108.587371)
        (xy 146.042902 108.585773)
        (xy 146.397654 108.246765)
        (xy 146.438892 108.200481)
        (xy 146.722399 107.882278)
        (xy 146.724074 107.880398)
        (xy 146.725595 107.878387)
        (xy 147.018544 107.491039)
        (xy 147.018545 107.491037)
        (xy 147.020061 107.489033)
        (xy 147.283708 107.075191)
        (xy 147.513315 106.641538)
        (xy 147.707405 106.190867)
        (xy 147.864726 105.726083)
        (xy 147.984265 105.250178)
        (xy 148.065252 104.766219)
        (xy 148.107165 104.277325)
        (xy 148.1075 104.213357)
        (xy 154.890266 104.213357)
        (xy 154.927057 104.702663)
        (xy 155.002972 105.187444)
        (xy 155.117521 105.664574)
        (xy 155.118302 105.666964)
        (xy 155.118305 105.666974)
        (xy 155.269182 106.128583)
        (xy 155.269966 106.130981)
        (xy 155.459325 106.583659)
        (xy 155.684379 107.019693)
        (xy 155.943678 107.436273)
        (xy 156.23555 107.830716)
        (xy 156.558116 108.200481)
        (xy 156.909298 108.543185)
        (xy 156.911235 108.544794)
        (xy 156.911246 108.544803)
        (xy 156.962526 108.587376)
        (xy 157.286833 108.85662)
        (xy 157.68829 109.138769)
        (xy 157.690467 109.140051)
        (xy 157.690468 109.140052)
        (xy 158.108897 109.386526)
        (xy 158.108906 109.386531)
        (xy 158.111081 109.387812)
        (xy 158.113354 109.388916)
        (xy 158.113362 109.38892)
        (xy 158.550202 109.601038)
        (xy 158.550214 109.601043)
        (xy 158.552483 109.602145)
        (xy 158.619724 109.628361)
        (xy 159.007287 109.779466)
        (xy 159.007297 109.77947)
        (xy 159.009653 109.780388)
        (xy 159.479645 109.921392)
        (xy 159.482097 109.921918)
        (xy 159.482106 109.92192)
        (xy 159.956971 110.023723)
        (xy 159.95698 110.023725)
        (xy 159.959431 110.02425)
        (xy 160.161075 110.050797)
        (xy 160.443414 110.087967)
        (xy 160.443418 110.087967)
        (xy 160.445922 110.088297)
        (xy 160.448436 110.088424)
        (xy 160.448443 110.088425)
        (xy 160.843136 110.10842)
        (xy 160.843153 110.10842)
        (xy 160.844724 110.1085)
        (xy 161.123445 110.1085)
        (xy 161.341239 110.099753)
        (xy 161.487758 110.093868)
        (xy 161.487763 110.093868)
        (xy 161.490293 110.093766)
        (xy 161.73386 110.064291)
        (xy 161.974909 110.035121)
        (xy 161.974916 110.03512)
        (xy 161.977427 110.034816)
        (xy 161.979889 110.034315)
        (xy 161.979902 110.034313)
        (xy 162.261729 109.976974)
        (xy 162.458264 109.936989)
        (xy 162.728433 109.859009)
        (xy 162.927276 109.801616)
        (xy 162.927283 109.801614)
        (xy 162.929707 109.800914)
        (xy 163.388718 109.627468)
        (xy 163.832341 109.417768)
        (xy 164.009474 109.315912)
        (xy 164.255518 109.174431)
        (xy 164.255527 109.174425)
        (xy 164.257717 109.173166)
        (xy 164.662106 108.895238)
        (xy 164.707835 108.858075)
        (xy 165.04093 108.587376)
        (xy 165.040936 108.587371)
        (xy 165.042902 108.585773)
        (xy 165.397654 108.246765)
        (xy 165.438892 108.200481)
        (xy 165.722399 107.882278)
        (xy 165.724074 107.880398)
        (xy 165.725595 107.878387)
        (xy 166.018544 107.491039)
        (xy 166.018545 107.491037)
        (xy 166.020061 107.489033)
        (xy 166.283708 107.075191)
        (xy 166.513315 106.641538)
        (xy 166.707405 106.190867)
        (xy 166.864726 105.726083)
        (xy 166.984265 105.250178)
        (xy 167.065252 104.766219)
        (xy 167.107165 104.277325)
        (xy 167.109734 103.786643)
        (xy 167.072943 103.297337)
        (xy 166.997028 102.812556)
        (xy 166.882479 102.335426)
        (xy 166.86318 102.276378)
        (xy 166.730818 101.871417)
        (xy 166.730816 101.871412)
        (xy 166.730034 101.869019)
        (xy 166.540675 101.416341)
        (xy 166.315621 100.980307)
        (xy 166.056322 100.563727)
        (xy 165.76445 100.169284)
        (xy 165.441884 99.799519)
        (xy 165.090702 99.456815)
        (xy 165.088765 99.455206)
        (xy 165.088754 99.455197)
        (xy 164.715118 99.145)
        (xy 164.713167 99.14338)
        (xy 164.31171 98.861231)
        (xy 164.255752 98.828269)
        (xy 163.891103 98.613474)
        (xy 163.891094 98.613469)
        (xy 163.888919 98.612188)
        (xy 163.886646 98.611084)
        (xy 163.886638 98.61108)
        (xy 163.449798 98.398962)
        (xy 163.449786 98.398957)
        (xy 163.447517 98.397855)
        (xy 163.252221 98.321712)
        (xy 162.992713 98.220534)
        (xy 162.992703 98.22053)
        (xy 162.990347 98.219612)
        (xy 162.520355 98.078608)
        (xy 162.517903 98.078082)
        (xy 162.517894 98.07808)
        (xy 162.043029 97.976277)
        (xy 162.04302 97.976275)
        (xy 162.040569 97.97575)
        (xy 161.838925 97.949203)
        (xy 161.556586 97.912033)
        (xy 161.556582 97.912033)
        (xy 161.554078 97.911703)
        (xy 161.551564 97.911576)
        (xy 161.551557 97.911575)
        (xy 161.156864 97.89158)
        (xy 161.156847 97.89158)
        (xy 161.155276 97.8915)
        (xy 160.876555 97.8915)
        (xy 160.658761 97.900247)
        (xy 160.512242 97.906132)
        (xy 160.512237 97.906132)
        (xy 160.509707 97.906234)
        (xy 160.26614 97.935709)
        (xy 160.025091 97.964879)
        (xy 160.025084 97.96488)
        (xy 160.022573 97.965184)
        (xy 160.020111 97.965685)
        (xy 160.020098 97.965687)
        (xy 159.738271 98.023026)
        (xy 159.541736 98.063011)
        (xy 159.271567 98.140991)
        (xy 159.072724 98.198384)
        (xy 159.072717 98.198386)
        (xy 159.070293 98.199086)
        (xy 158.611282 98.372532)
        (xy 158.167659 98.582232)
        (xy 157.990526 98.684088)
        (xy 157.744482 98.825569)
        (xy 157.744473 98.825575)
        (xy 157.742283 98.826834)
        (xy 157.337894 99.104762)
        (xy 157.335932 99.106357)
        (xy 157.33593 99.106358)
        (xy 157.290375 99.14338)
        (xy 156.957098 99.414227)
        (xy 156.602346 99.753235)
        (xy 156.600672 99.755113)
        (xy 156.600667 99.755119)
        (xy 156.559413 99.801422)
        (xy 156.275926 100.119602)
        (xy 156.274406 100.121612)
        (xy 156.274405 100.121613)
        (xy 156.23979 100.167383)
        (xy 155.979939 100.510967)
        (xy 155.716292 100.924809)
        (xy 155.486685 101.358462)
        (xy 155.292595 101.809133)
        (xy 155.135274 102.273917)
        (xy 155.015735 102.749822)
        (xy 154.934748 103.233781)
        (xy 154.892835 103.722675)
        (xy 154.890266 104.213357)
        (xy 148.1075 104.213357)
        (xy 148.109734 103.786643)
        (xy 148.072943 103.297337)
        (xy 147.997028 102.812556)
        (xy 147.882479 102.335426)
        (xy 147.86318 102.276378)
        (xy 147.730818 101.871417)
        (xy 147.730816 101.871412)
        (xy 147.730034 101.869019)
        (xy 147.540675 101.416341)
        (xy 147.315621 100.980307)
        (xy 147.056322 100.563727)
        (xy 146.76445 100.169284)
        (xy 146.441884 99.799519)
        (xy 146.090702 99.456815)
        (xy 146.088765 99.455206)
        (xy 146.088754 99.455197)
        (xy 145.715118 99.145)
        (xy 145.713167 99.14338)
        (xy 145.31171 98.861231)
        (xy 145.255752 98.828269)
        (xy 144.891103 98.613474)
        (xy 144.891094 98.613469)
        (xy 144.888919 98.612188)
        (xy 144.886646 98.611084)
        (xy 144.886638 98.61108)
        (xy 144.449798 98.398962)
        (xy 144.449786 98.398957)
        (xy 144.447517 98.397855)
        (xy 144.252221 98.321712)
        (xy 143.992713 98.220534)
        (xy 143.992703 98.22053)
        (xy 143.990347 98.219612)
        (xy 143.520355 98.078608)
        (xy 143.517903 98.078082)
        (xy 143.517894 98.07808)
        (xy 143.043029 97.976277)
        (xy 143.04302 97.976275)
        (xy 143.040569 97.97575)
        (xy 142.838925 97.949203)
        (xy 142.556586 97.912033)
        (xy 142.556582 97.912033)
        (xy 142.554078 97.911703)
        (xy 142.551564 97.911576)
        (xy 142.551557 97.911575)
        (xy 142.156864 97.89158)
        (xy 142.156847 97.89158)
        (xy 142.155276 97.8915)
        (xy 141.876555 97.8915)
        (xy 141.658761 97.900247)
        (xy 141.512242 97.906132)
        (xy 141.512237 97.906132)
        (xy 141.509707 97.906234)
        (xy 141.26614 97.935709)
        (xy 141.025091 97.964879)
        (xy 141.025084 97.96488)
        (xy 141.022573 97.965184)
        (xy 141.020111 97.965685)
        (xy 141.020098 97.965687)
        (xy 140.738271 98.023026)
        (xy 140.541736 98.063011)
        (xy 140.271567 98.140991)
        (xy 140.072724 98.198384)
        (xy 140.072717 98.198386)
        (xy 140.070293 98.199086)
        (xy 139.611282 98.372532)
        (xy 139.167659 98.582232)
        (xy 138.990526 98.684088)
        (xy 138.744482 98.825569)
        (xy 138.744473 98.825575)
        (xy 138.742283 98.826834)
        (xy 138.337894 99.104762)
        (xy 138.335932 99.106357)
        (xy 138.33593 99.106358)
        (xy 138.290375 99.14338)
        (xy 137.957098 99.414227)
        (xy 137.602346 99.753235)
        (xy 137.600672 99.755113)
        (xy 137.600667 99.755119)
        (xy 137.559413 99.801422)
        (xy 137.275926 100.119602)
        (xy 137.274406 100.121612)
        (xy 137.274405 100.121613)
        (xy 137.23979 100.167383)
        (xy 136.979939 100.510967)
        (xy 136.716292 100.924809)
        (xy 136.486685 101.358462)
        (xy 136.292595 101.809133)
        (xy 136.135274 102.273917)
        (xy 136.015735 102.749822)
        (xy 135.934748 103.233781)
        (xy 135.892835 103.722675)
        (xy 135.890266 104.213357)
        (xy 99.2585 104.213357)
        (xy 99.2585 74.05325)
        (xy 99.260246 74.032345)
        (xy 99.26277 74.017344)
        (xy 99.26277 74.017341)
        (xy 99.263576 74.012552)
        (xy 99.263729 74)
        (xy 99.262788 73.993429)
        (xy 99.262123 73.963218)
        (xy 99.271531 73.867694)
        (xy 99.276348 73.843473)
        (xy 99.311341 73.728113)
        (xy 99.320794 73.705294)
        (xy 99.377614 73.598991)
        (xy 99.391337 73.578453)
        (xy 99.467808 73.485273)
        (xy 99.485273 73.467808)
        (xy 99.578453 73.391337)
        (xy 99.598991 73.377614)
        (xy 99.705294 73.320794)
        (xy 99.728114 73.311341)
        (xy 99.843473 73.276348)
        (xy 99.867693 73.271531)
        (xy 99.895519 73.268791)
        (xy 99.95981 73.262459)
        (xy 99.975868 73.262909)
        (xy 99.975877 73.2622)
        (xy 99.984853 73.26231)
        (xy 99.993724 73.263691)
        (xy 100.002626 73.262527)
        (xy 100.002628 73.262527)
        (xy 100.019059 73.260378)
        (xy 100.025286 73.259564)
        (xy 100.041621 73.2585)
        (xy 202.950633 73.2585)
      )
    )
  )
)
